Division,WeightClassKg,Place,Name,Team,BodyweightKg,Best3SquatKg,Best3BenchKg,Best3DeadliftKg,TotalKg,Equipment,Event,Sex,BirthDate
Boys,55.79,1,Matthew Irving,Coldspring-Oakhurst,55.34,95.25,65.77,102.06,263.08,Single-ply,SBD,M,
Boys,55.79,DQ,Jack King,Coldspring-Oakhurst,54.88,122.47,65.77,,,Single-ply,SBD,M,
Boys,59.87,1,Joseph Horton,Coldspring-Oakhurst,59.87,117.93,86.18,138.35,342.46,Single-ply,SBD,M,
Boys,59.87,2,Cole Schroeder,Huntsville,59.42,120.2,70.31,142.88,333.39,Single-ply,SBD,M,
Boys,67.13,1,Matthew Tatum,Huntsville,67.13,158.76,102.06,165.56,426.38,Single-ply,SBD,M,
Boys,67.13,2,Dawson Keen,Coldspring-Oakhurst,63.05,102.06,74.84,142.88,319.78,Single-ply,SBD,M,
Boys,74.84,1,Bradnon Wiley,Huntsville,74.84,165.56,102.06,185.97,453.59,Single-ply,SBD,M,
Boys,74.84,DQ,Colton Bailey,Coldspring-Oakhurst,72.57,,70.31,136.08,,Single-ply,SBD,M,
Boys,82.1,1,Scott Lane,Coldspring-Oakhurst,76.2,161.03,102.06,156.49,419.57,Single-ply,SBD,M,
Boys,82.1,2,Devin Allen,Huntsville,77.11,158.76,92.99,167.83,419.57,Single-ply,SBD,M,
Boys,89.81,1,Kesheon Mayers,Huntsville,87.54,226.8,140.61,204.12,571.53,Single-ply,SBD,M,
Boys,89.81,2,Stephen Torres,Coldspring-Oakhurst,89.81,165.56,124.74,161.03,451.32,Single-ply,SBD,M,
Boys,89.81,3,Ivan Mejia,Huntsville,84.82,165.56,90.72,185.97,442.25,Single-ply,SBD,M,
Boys,89.81,4,Thomas Knapp,Huntsville,88.9,147.42,97.52,158.76,403.7,Single-ply,SBD,M,
Boys,99.79,1,Caleb Monroe,Coldspring-Oakhurst,98.43,229.06,151.95,226.8,607.81,Single-ply,SBD,M,
Boys,99.79,2,Ricky Lewis,Coldspring-Oakhurst,92.99,222.26,115.67,213.19,551.11,Single-ply,SBD,M,
Boys,99.79,3,Adyn Griffin,Huntsville,95.25,185.97,113.4,210.92,510.29,Single-ply,SBD,M,
Boys,99.79,4,Shawn Snyder,Coldspring-Oakhurst,98.88,174.63,106.59,181.44,462.66,Single-ply,SBD,M,
Boys,99.79,5,Chase Tones,Huntsville,96.16,79.38,74.84,108.86,263.08,Single-ply,SBD,M,
Boys,109.77,1,Calvin Simmons,Huntsville,101.15,226.8,124.74,204.12,555.65,Single-ply,SBD,M,
Boys,124.74,1,Javon Terry,Coldspring-Oakhurst,114.31,188.24,120.2,167.83,476.27,Single-ply,SBD,M,
Boys,124.74,2,Jeremiah Reese,Coldspring-Oakhurst,114.76,174.63,127.01,161.03,462.66,Single-ply,SBD,M,
Boys,139.71,1,Thomas Rose,Huntsville,129.27,226.8,129.27,204.12,560.19,Single-ply,SBD,M,
Boys,139.71,2,Chris Smith #7,Huntsville,128.82,229.06,120.2,206.38,555.65,Single-ply,SBD,M,
Boys,139.71+,1,Hayden Richardson,Coldspring-Oakhurst,142.88,290.3,163.29,249.48,703.07,Single-ply,SBD,M,
