Division,WeightClassKg,Place,Name,Team,BodyweightKg,Best3SquatKg,Best3BenchKg,Best3DeadliftKg,TotalKg,Equipment,Event,Sex,BirthDate
Boys,67.13,1,Caleb Clemmons,Athens,66.36,165.56,106.59,161.03,433.18,Single-ply,SBD,M,
Boys,67.13,1,Nathan Hall,Athens,59.96,136.08,92.99,147.42,376.48,Single-ply,SBD,M,
Boys,67.13,2,Jason Christian,Van,66.77,131.54,79.38,145.15,356.07,Single-ply,SBD,M,
Boys,74.84,DQ,Blayne Chamness,Van,72.67,,,,,Single-ply,SBD,M,
Boys,74.84,DQ,Logan Schwerin,Athens,73.94,,,,,Single-ply,SBD,M,
Boys,89.81,1,Jon Richardson,Van,87.09,181.44,90.72,167.83,439.98,Single-ply,SBD,M,
Boys,89.81,2,Joe Ruiz,Van,87.54,142.88,83.91,138.35,365.14,Single-ply,SBD,M,
Boys,89.81,3,Jorge Garcia,Athens,86.27,136.08,90.72,136.08,362.87,Single-ply,SBD,M,
Boys,99.79,1,John Hayes,Athens,96.62,140.61,97.52,199.58,437.72,Single-ply,SBD,M,
Boys,99.79,DQ,Landon Justice,Van,97.3,,,,,Single-ply,SBD,M,
Boys,109.77,1,Dylan Grubbs,Athens,106.14,197.31,90.72,176.9,464.93,Single-ply,SBD,M,
Boys,109.77,2,Hunter White,Athens,109.77,172.37,108.86,170.1,451.32,Single-ply,SBD,M,
Boys,109.77,3,Ivan Pinedo,Athens,107.86,147.42,86.18,151.95,385.55,Single-ply,SBD,M,
Boys,109.77,4,Zachary Carranza,Athens,103.6,127.01,95.25,140.61,362.87,Single-ply,SBD,M,
Boys,124.74,1,Victor Mata,Van,119.75,174.63,97.52,181.44,453.59,Single-ply,SBD,M,
Boys,124.74,2,Kepler Multhaup,Van,110.95,158.76,83.91,163.29,405.97,Single-ply,SBD,M,
Boys,139.71,1,Trae Derrick,Van,128.82,181.44,95.25,149.69,426.38,Single-ply,SBD,M,
Boys,139.71+,1,Dillion Normandin,Athens,147.69,179.17,111.13,181.44,471.74,Single-ply,SBD,M,
