Division,WeightClassKg,Place,Name,Team,BodyweightKg,Best3SquatKg,Best3BenchKg,Best3DeadliftKg,TotalKg,Equipment,Event,Sex,BirthDate
Boys,59.87,1,Diego Manteca,Waller,58.88,147.42,72.57,142.88,362.87,Single-ply,SBD,M,
Boys,59.87,DQ,Michael Martinez,Baytown Goose Creek Memorial,57.29,,,,,Single-ply,SBD,M,
Boys,67.13,1,Romeo Jackson,Waller,61.55,111.13,77.11,151.95,340.19,Single-ply,SBD,M,
Boys,74.84,1,Bryce Johnston,Baytown Goose Creek Memorial,73.12,213.19,106.59,235.87,555.65,Single-ply,SBD,M,
Boys,74.84,2,Miguel Garcia-Garcia,Waller,70.03,158.76,106.59,149.69,415.04,Single-ply,SBD,M,
Boys,74.84,3,Adam Vance,Waller,72.35,131.54,88.45,163.29,383.29,Single-ply,SBD,M,
Boys,74.84,4,Morgan Gilley,Waller,71.89,122.47,79.38,163.29,365.14,Single-ply,SBD,M,
Boys,82.1,1,Sergio Hinojosa,Baytown Goose Creek Memorial,75.89,199.58,122.47,233.6,555.65,Single-ply,SBD,M,
Boys,82.1,2,Evan Exley,Waller,77.56,147.42,97.52,149.69,394.63,Single-ply,SBD,M,
Boys,82.1,3,Jacob Dains,Waller,78.52,138.35,83.91,163.29,385.55,Single-ply,SBD,M,
Boys,82.1,DQ,Jacob Perez #11,Baytown Goose Creek Memorial,77.2,,,,,Single-ply,SBD,M,
Boys,89.81,1,Zach Phipps,Waller,87.72,206.38,124.74,210.92,542.04,Single-ply,SBD,M,
Boys,89.81,2,Joshua Solt,Waller,82.96,192.78,108.86,204.12,505.76,Single-ply,SBD,M,
Boys,89.81,3,Ryan Garcia,Waller,86.95,176.9,108.86,167.83,453.59,Single-ply,SBD,M,
Boys,89.81,4,Miguel Huerta,Waller,85.09,154.22,81.65,158.76,394.63,Single-ply,SBD,M,
Boys,99.79,1,Caleb Godfrey,Waller,93.67,172.37,129.27,183.7,485.34,Single-ply,SBD,M,
Boys,99.79,2,Jairo Garcia,Waller,98.2,167.83,115.67,183.7,467.2,Single-ply,SBD,M,
Boys,99.79,3,Jaiden Stevens,Waller,97.84,147.42,97.52,163.29,408.23,Single-ply,SBD,M,
Boys,139.71,DQ,Adrian Arrellano,Baytown Goose Creek Memorial,139.12,,,,,Single-ply,SBD,M,
