Division,WeightClassKg,Place,Name,Team,BodyweightKg,Best3SquatKg,Best3BenchKg,Best3DeadliftKg,TotalKg,Equipment,Event,Sex,BirthDate
Boys,51.71,1,George Isanda,Keller Fossil Ridge,51.71,136.08,86.18,151.95,374.21,Single-ply,SBD,M,
Boys,51.71,2,Cason Brazell,Keller,51.53,124.74,58.97,136.08,319.78,Single-ply,SBD,M,
Boys,51.71,3,Kody Tanimoto,Keller Central,47.81,113.4,70.31,113.4,297.1,Single-ply,SBD,M,
Boys,55.79,1,Nick Rodriguez,Keller Central,55.7,111.13,70.31,131.54,312.98,Single-ply,SBD,M,
Boys,59.87,1,Andrew Trinh,Keller Fossil Ridge,59.78,158.76,83.91,174.63,417.3,Single-ply,SBD,M,
Boys,59.87,2,Jaylee Chanthavee,Keller Fossil Ridge,59.15,133.81,70.31,163.29,367.41,Single-ply,SBD,M,
Boys,59.87,3,Chris Riggio,Keller Central,59.33,176.9,68.04,122.47,367.41,Single-ply,SBD,M,
Boys,59.87,DQ,Byron Kimani,Keller Fossil Ridge,58.33,129.27,63.5,147.42,,Single-ply,SBD,M,
Boys,67.13,1,Braden Manners,Keller Central,67.13,183.7,104.33,165.56,453.59,Single-ply,SBD,M,
Boys,67.13,2,Coltyn Christian,Keller Central,65.14,156.49,77.11,167.83,401.43,Single-ply,SBD,M,
Boys,74.84,1,Marvin Reinoshek,Keller Fossil Ridge,70.85,197.31,111.13,190.51,498.95,Single-ply,SBD,M,
Boys,74.84,2,Justin Huynh,Keller Central,73.39,192.78,117.93,188.24,498.95,Single-ply,SBD,M,
Boys,82.1,DQ,Preston Hall,Keller Central,81.83,142.88,124.74,142.88,,Single-ply,SBD,M,
Boys,89.81,1,Felipe Silva,Keller Central,85.64,215.46,131.54,215.46,562.45,Single-ply,SBD,M,
Boys,89.81,2,Charles Jochim,Keller,85.5,165.56,113.4,201.85,480.81,Single-ply,SBD,M,
Boys,99.79,1,Camden Boyd,Keller,95.93,199.58,127.01,197.31,523.9,Single-ply,SBD,M,
Boys,109.77,1,Jett Lund,Keller Timber Creek,105.51,213.19,142.88,181.44,537.51,Single-ply,SBD,M,
Boys,124.74,1,Parker McElwee,Keller,123.65,249.48,124.74,183.7,557.92,Single-ply,SBD,M,
Boys,139.71,1,Jt Linnear,Keller,134.72,242.67,127.01,215.46,585.13,Single-ply,SBD,M,
Boys,139.71,2,Reagan Wade,Keller Timber Creek,128.09,244.94,133.81,199.58,578.33,Single-ply,SBD,M,
