Division,WeightClassKg,Place,Name,Team,BodyweightKg,Best3SquatKg,Best3BenchKg,Best3DeadliftKg,TotalKg,Equipment,Event,Sex
Boys,51.71,1,Oscar Martel,Laredo United South,50.89,174.63,108.86,179.17,462.66,Single-ply,SBD,M
Boys,51.71,2,Kike Sanchez,Laredo Cigarroa,48.08,102.06,65.77,111.13,278.96,Single-ply,SBD,M
Boys,51.71,3,Fabran Garza,Laredo Nixon,51.07,79.38,56.7,106.59,242.67,Single-ply,SBD,M
Boys,51.71,4,Zackary Palomo,Laredo Martin,48.9,65.77,29.48,74.84,170.1,Single-ply,SBD,M
Boys,55.79,1,Eddie Macias,Laredo Nixon,53.71,149.69,86.18,140.61,376.48,Single-ply,SBD,M
Boys,55.79,2,Jovan Colchado,Dilley,52.89,133.81,70.31,138.35,342.46,Single-ply,SBD,M
Boys,55.79,3,Gerardo Acevedo,Laredo Johnson,54.34,113.4,65.77,122.47,301.64,Single-ply,SBD,M
Boys,55.79,4,Jesus Garza,Laredo Cigarroa,55.16,81.65,47.63,79.38,208.65,Single-ply,SBD,M
Boys,55.79,DQ,Leo Rodriguez,Laredo United,54.98,113.4,,,,Single-ply,SBD,M
Boys,59.87,1,Jose Alcorta,Laredo United South,59.24,154.22,106.59,192.78,453.59,Single-ply,SBD,M
Boys,59.87,2,Vynce Ochoa,Dilley,59.33,172.37,102.06,158.76,433.18,Single-ply,SBD,M
Boys,59.87,3,Jonatrhan Diaz,Laredo Martin,59.42,170.1,79.38,158.76,408.23,Single-ply,SBD,M
Boys,59.87,4,Rolando Aguilar,Laredo United,58.24,156.49,74.84,167.83,399.16,Single-ply,SBD,M
Boys,59.87,5,Jose Hernandez #16,Laredo Nixon,56.79,79.38,68.04,136.08,283.5,Single-ply,SBD,M
Boys,59.87,6,Alberto Medina,Laredo Martin,58.69,83.91,47.63,102.06,233.6,Single-ply,SBD,M
Boys,67.13,1,Ramiro Rangel,Laredo Cigarroa,62.96,147.42,92.99,174.63,415.04,Single-ply,SBD,M
Boys,67.13,2,Mark Santillen,Laredo Johnson,66.22,151.95,88.45,174.63,415.04,Single-ply,SBD,M
Boys,67.13,3,Julian Alvarado,Laredo United,62.96,151.95,79.38,156.49,387.82,Single-ply,SBD,M
Boys,67.13,4,Luis Mendez,Laredo United,67.13,142.88,74.84,170.1,387.82,Single-ply,SBD,M
Boys,67.13,5,Pablo Salazar,Laredo Cigarroa,66.68,145.15,70.31,163.29,378.75,Single-ply,SBD,M
Boys,67.13,6,Roger Guzman,Laredo United,66.68,124.74,79.38,170.1,374.21,Single-ply,SBD,M
Boys,67.13,7,Joseph Ibarra,Laredo Nixon,66.95,133.81,83.91,156.49,374.21,Single-ply,SBD,M
Boys,67.13,8,Alfonso Reyes,Laredo Martin,65.45,133.81,72.57,161.03,367.41,Single-ply,SBD,M
Boys,67.13,9,Fabian Santos,Dilley,62.6,142.88,70.31,136.08,349.27,Single-ply,SBD,M
Boys,67.13,10,Bernie Cruz,Laredo Nixon,64.77,124.74,72.57,149.69,347,Single-ply,SBD,M
Boys,67.13,11,Enrique Rendon,Laredo Martin,66.68,133.81,65.77,140.61,340.19,Single-ply,SBD,M
Boys,67.13,12,Alex De La Rosa,Dilley,65.77,108.86,83.91,131.54,324.32,Single-ply,SBD,M
Boys,67.13,13,Jeson Esquivel,Laredo Martin,63.41,133.81,65.77,115.67,315.25,Single-ply,SBD,M
Boys,67.13,14,Luis Alvarez,Laredo United South,62.23,90.72,43.09,83.91,217.72,Single-ply,SBD,M
Boys,67.13,DQ,Albert Laurel Jr,Laredo Alexander,65.23,136.08,74.84,,,Single-ply,SBD,M
Boys,74.84,1,Nick Rodriguez,Dilley,74.57,210.92,122.47,201.85,535.24,Single-ply,SBD,M
Boys,74.84,2,Albert Garcia,Laredo Johnson,73.03,190.51,97.52,192.78,480.81,Single-ply,SBD,M
Boys,74.84,3,Pierce Ramirez,Dilley,74.03,185.97,90.72,165.56,442.25,Single-ply,SBD,M
Boys,74.84,4,Mateo Simpson,Laredo United,70.13,163.29,95.25,174.63,433.18,Single-ply,SBD,M
Boys,74.84,5,Juan Gonzalez,Laredo Johnson,70.49,158.76,95.25,138.35,392.36,Single-ply,SBD,M
Boys,74.84,6,Daniel Gomez,Laredo United South,73.48,133.81,74.84,149.69,358.34,Single-ply,SBD,M
Boys,74.84,7,Adrian de la Rosa,Dilley,70.49,131.54,86.18,131.54,349.27,Single-ply,SBD,M
Boys,74.84,8,Miguel Madrigal,Laredo Nixon,67.59,86.18,52.16,145.15,283.5,Single-ply,SBD,M
Boys,74.84,9,Hector Solis,Laredo Cigarroa,72.67,90.72,61.23,127.01,278.96,Single-ply,SBD,M
Boys,74.84,10,Cesar Sanchez,Laredo Cigarroa,72.57,86.18,63.5,113.4,263.08,Single-ply,SBD,M
Boys,82.1,1,Ismael Espinoza,Laredo Johnson,81.19,190.51,97.52,197.31,485.34,Single-ply,SBD,M
Boys,82.1,2,Edwin Gonzalez,Laredo Nixon,76.84,163.29,95.25,174.63,433.18,Single-ply,SBD,M
Boys,82.1,3,Seth Pena,Laredo United,77.11,142.88,86.18,183.7,412.77,Single-ply,SBD,M
Boys,82.1,4,Romeo Astudillo,Laredo United,76.84,142.88,97.52,165.56,405.97,Single-ply,SBD,M
Boys,82.1,5,Ramon Zamarrippa,Laredo United,77.2,138.35,95.25,167.83,401.43,Single-ply,SBD,M
Boys,82.1,6,Chris Ruiz,Laredo Alexander,76.11,142.88,102.06,147.42,392.36,Single-ply,SBD,M
Boys,82.1,7,Marcus Zavala,Laredo Martin,77.47,127.01,68.04,122.47,317.51,Single-ply,SBD,M
Boys,82.1,8,Lauro Soto,Laredo Cigarroa,79.65,102.06,52.16,97.52,251.74,Single-ply,SBD,M
Boys,89.81,1,Marty Trevino,Dilley,89.81,226.8,136.08,226.8,589.67,Single-ply,SBD,M
Boys,89.81,2,Beau Medrano,Dilley,87.36,222.26,151.95,204.12,578.33,Single-ply,SBD,M
Boys,89.81,3,Juan Martinez,Dilley,87.09,181.44,88.45,170.1,439.98,Single-ply,SBD,M
Boys,89.81,4,Kenny Obregon,Laredo Alexander,87.54,136.08,74.84,158.76,369.68,Single-ply,SBD,M
Boys,89.81,5,Carlos Ramos #1,Laredo Cigarroa,89.63,136.08,58.97,142.88,337.93,Single-ply,SBD,M
Boys,89.81,6,Max Marchan,Laredo Nixon,88.54,102.06,68.04,154.22,324.32,Single-ply,SBD,M
Boys,89.81,DQ,Brandon Brondo,Laredo United,88.54,,,,,Single-ply,SBD,M
Boys,99.79,1,Jj Urbina,Laredo Johnson,97.43,149.69,106.59,206.38,462.66,Single-ply,SBD,M
Boys,99.79,2,Jesse Hernandez,Laredo Alexander,97.07,158.76,102.06,170.1,430.91,Single-ply,SBD,M
Boys,99.79,3,Santino Palizo,Laredo Alexander,90.63,147.42,99.79,156.49,403.7,Single-ply,SBD,M
Boys,99.79,4,Kris Korrodi,Laredo Alexander,92.44,149.69,88.45,142.88,381.02,Single-ply,SBD,M
Boys,99.79,4,Alex Guerrero #1,Laredo Alexander,97.79,129.27,79.38,156.49,365.14,Single-ply,SBD,M
Boys,109.77,1,Abel Mendoza,Laredo Nixon,109.77,210.92,138.35,206.38,555.65,Single-ply,SBD,M
Boys,109.77,2,Juan Hinojosa,Laredo Johnson,104.6,190.51,90.72,190.51,471.74,Single-ply,SBD,M
Boys,109.77,3,Javier Amador,Laredo Martin,107.5,197.31,90.72,181.44,469.47,Single-ply,SBD,M
Boys,109.77,5,Cesar Gutierrez,Laredo Cigarroa,109.77,127.01,68.04,131.54,326.59,Single-ply,SBD,M
Boys,124.74,1,Luis Barron,Laredo Johnson,124.74,217.72,133.81,224.53,576.06,Single-ply,SBD,M
Boys,124.74,1,Dustin Dominguez,Dilley,123.38,267.62,127.01,208.65,603.28,Single-ply,SBD,M
Boys,124.74,2,Myriel Jaramillo,Laredo Johnson,121.74,233.6,136.08,213.19,582.87,Single-ply,SBD,M
Boys,124.74,3,Marc Pardo,Laredo Cigarroa,118.84,242.67,106.59,210.92,560.19,Single-ply,SBD,M
Boys,124.74,4,Jorge Gutierrez,Laredo Cigarroa,123.29,210.92,97.52,210.92,519.36,Single-ply,SBD,M
Boys,124.74,5,Carlos Silva,Laredo Martin,119.75,224.53,102.06,192.78,519.36,Single-ply,SBD,M
Boys,124.74,6,Claudio Padilla,Laredo Johnson,121.97,183.7,108.86,224.53,517.1,Single-ply,SBD,M
Boys,124.74,7,Brian Gutierrez,Laredo Nixon,113.4,204.12,122.47,183.7,510.29,Single-ply,SBD,M
Boys,124.74,8,Pedro Garcia,Laredo Alexander,112.94,190.51,113.4,204.12,508.02,Single-ply,SBD,M
Boys,124.74,9,Jeremy Ramirez,Laredo United,113.76,185.97,108.86,201.85,496.68,Single-ply,SBD,M
Boys,124.74,10,Luis Rios,Laredo Johnson,119.29,183.7,115.67,197.31,496.68,Single-ply,SBD,M
Boys,124.74,11,Oziel Lugo,Laredo Nixon,124.74,181.44,124.74,181.44,487.61,Single-ply,SBD,M
Boys,124.74,12,Juan Valadez,Laredo Martin,121.11,183.7,92.99,181.44,458.13,Single-ply,SBD,M
Boys,124.74,13,Erick Zamora,Laredo Alexander,116.48,142.88,124.74,170.1,437.72,Single-ply,SBD,M
Boys,124.74,14,David Romagnoli,Laredo Nixon,114.03,149.69,97.52,188.24,435.45,Single-ply,SBD,M
Boys,124.74,15,Marcus Vara,Laredo Martin,119.29,138.35,79.38,165.56,383.29,Single-ply,SBD,M
Boys,124.74+,2,Justin Trevino,Laredo Martin,136.08,240.4,108.86,208.65,557.92,Single-ply,SBD,M
Boys,124.74+,3,Jose Gonzalez #14,Laredo United South,135.53,183.7,83.91,149.69,417.3,Single-ply,SBD,M
Boys,124.74+,4,Sigifredo Sepulveda,Laredo Cigarroa,148.32,154.22,102.06,154.22,410.5,Single-ply,SBD,M
