Place,Sex,Name,CyrillicName,BodyweightKg,Squat1Kg,Squat2Kg,Squat3Kg,Best3SquatKg,Squat4Kg,Bench1Kg,Bench2Kg,Bench3Kg,Best3BenchKg,Bench4Kg,Deadlift1Kg,Deadlift2Kg,Deadlift3Kg,Best3DeadliftKg,Deadlift4Kg,TotalKg,WeightClassKg,Event,Equipment,Tested,Division,Age,BirthDate
1,F,Lyudmila Kulygina,Людмила Кулыгина,47.8,80,-85,-85,80,,-45,45,-47.5,45,,90,-100,-117.5,90,,215,48,SBD,Raw,Yes,Amateur Open,34,1987-02-25
1,M,Evgeniy Kalinin,Евгений Калинин,109.9,215,225,,225,,150,160,-165,160,,220,245,-255,245,,630,110,SBD,Raw,Yes,Amateur Juniors 20-23,21,1999-06-24
1,M,Vadim Patkin,Вадим Паткин,112.5,-160,160,170,170,,140,150,160,160,,170,185,200,200,,530,125,SBD,Raw,Yes,Amateur Open,28,1992-10-27
1,M,Kirill Kharchilin,Кирилл Харчилин,73.1,100,-110,110,110,,80,82.5,-85,82.5,,120,130,140,140,,332.5,75,SBD,Raw,No,Pro Teen 14-16,16,2004-09-15
1,M,Ilya Romanov #3,Илья Романов,74.4,115,125,135,135,,100,110,115,115,,150,165,-180,165,,415,75,SBD,Raw,No,Pro Sub-Juniors 17-19,18,2002-06-23
DQ,M,Sergey Makhrov,Сергей Махров,94,-140,-140,-140,,,,,,,,,,,,,,100,SBD,Raw,No,Pro Masters 60-69,64,1957-02-17
1,M,Stanislav Sysoev,Станислав Сысоев,109.5,240,260,275,275,,150,160,170,170,,280,300,322.5,322.5,,767.5,110,SBD,Raw,No,Pro Open,31,1990-01-02
1,M,Dmitriy Lipatov,Дмитрий Липатов,88.4,250,260,270,270,,170,180,187.5,187.5,,-280,280,290,290,,747.5,90,SBD,Wraps,No,Pro Open,27,1993-04-11
1,M,Sergey Razudalov,Сергей Разудалов,109.7,300,320,-340,320,,240,250,-260,250,,320,-340,,320,,890,110,SBD,Wraps,No,Pro Open,30,1990-06-11
1,M,Aleksey Anokhin,Алексей Анохин,107.6,180,200,215,215,,150,170,-175,170,,-200,200,220,220,,605,110,SBD,Single-ply,No,Pro Open,34,1986-12-12
1,F,Polina Postnova,Полина Постнова,49.4,,,,,,45,50,-52.5,50,,,,,,,50,52,B,Raw,Yes,Amateur Teen 14-16,14,2006-08-03
1,F,Mariya Kuvshinova,Мария Кувшинова,54.9,,,,,,57.5,-60,-60,57.5,,,,,,,57.5,56,B,Raw,Yes,Amateur Open,35,1986-02-23
DQ,F,Oksana Mishina,Оксана Мишина,58.3,,,,,,-62.5,-67.5,-67.5,,,,,,,,,60,B,Raw,Yes,Amateur Teen 14-16,16,2004-12-03
1,F,Yuliya Pischasova,Юлия Писчасова,57.8,,,,,,37.5,40,-42.5,40,,,,,,,40,60,B,Raw,Yes,Amateur Open,29,1991-10-10
1,F,Aleksandra Kulikova,Александра Куликова,62.6,,,,,,70,72.5,-75,72.5,,,,,,,72.5,67.5,B,Raw,Yes,Amateur Juniors 20-23,22,1998-05-21
1,M,Dmitriy Bochkarev,Дмитрий Бочкарев,66.3,,,,,,80,87.5,-92.5,87.5,,,,,,,87.5,67.5,B,Raw,Yes,Amateur Teen 14-16,14,2006-08-06
1,M,Kirill Kulikov,Кирилл Куликов,72.3,,,,,,87.5,-92.5,-92.5,87.5,,,,,,,87.5,75,B,Raw,Yes,Amateur Sub-Juniors 17-19,17,2003-10-24
1,M,Danil Tarabanov,Данил Тарабанов,72.5,,,,,,130,-135,135,135,,,,,,,135,75,B,Raw,Yes,Amateur Juniors 20-23,20,2000-06-20
1,M,Vadim Nadin,Вадим Надин,73.3,,,,,,135,,,135,,,,,,,135,75,B,Raw,Yes,Amateur Open,24,1996-12-01
2,M,Aleksandr Bezborodov,Александр Безбородов,73.8,,,,,,112.5,117.5,120,120,,,,,,,120,75,B,Raw,Yes,Amateur Open,29,1991-12-26
1,M,Sergey Artamonov,Сергей Артамонов,73.6,,,,,,120,130,135,135,,,,,,,135,75,B,Raw,Yes,Amateur Masters 40-49,40,1980-12-21
1,M,Dinar Khayrtdinov,Динар Хайртдинов,82.2,,,,,,137.5,145,-147.5,145,,,,,,,145,82.5,B,Raw,Yes,Amateur Juniors 20-23,22,1998-12-21
2,M,Aleksey Daudrikh,Алексей Даудрих,80.8,,,,,,130,140,-145,140,,,,,,,140,82.5,B,Raw,Yes,Amateur Juniors 20-23,23,1997-12-23
1,M,Gennadiy Balakaev,Геннадий Балакаев,80.6,,,,,,120,127.5,130,130,,,,,,,130,82.5,B,Raw,Yes,Amateur Open,26,1995-02-10
2,M,Sergey Cheremushkin,Сергей Черемушкин,79.6,,,,,,-122.5,125,-127.5,125,,,,,,,125,82.5,B,Raw,Yes,Amateur Open,24,1996-10-04
DQ,M,Aleksey Solomka,Алексей Соломка,80,,,,,,-135,-135,-135,,,,,,,,,82.5,B,Raw,Yes,Amateur Open,26,1994-06-24
1,M,Aleksandr Saulkin,Александр Саулькин,88.8,,,,,,165,175,-180,175,,,,,,,175,90,B,Raw,Yes,Amateur Open,31,1989-10-12
1,M,Timur Yunusov,Тимур Юнусов,97.1,,,,,,150,162.5,,162.5,,,,,,,162.5,100,B,Raw,Yes,Amateur Open,24,1996-08-12
1,M,Igor Didenko,Игорь Диденко,105.2,,,,,,175,185,190,190,,,,,,,190,110,B,Raw,Yes,Amateur Juniors 20-23,22,1999-03-27
1,M,Ivan Chemarov,Иван Чемаров,27.1,,,,,,22.5,25,27.5,27.5,,,,,,,27.5,52,B,Raw,No,Youth,9,2011-11-27
2,M,Aleksnadr Kirpichev,Алекснадр Кирпичев,34.7,,,,,,22.5,25,-27.5,25,,,,,,,25,52,B,Raw,No,Youth,9,2011-10-02
3,M,Artem Pavlunin,Артем Павлунин,37.3,,,,,,22.5,25,-27.5,25,,,,,,,25,52,B,Raw,No,Youth,10,2011-02-18
DQ,M,Ildar Musin,Ильдар Мусин,74.1,,,,,,-110,-117.5,-117.5,,,,,,,,,75,B,Raw,No,Pro Juniors 20-23,20,2000-11-28
DQ,M,Aleksandr Ivanov,Александр Иванов,80.8,,,,,,-145,-145,-145,,,,,,,,,82.5,B,Raw,No,Pro Open,30,1990-07-27
1,M,Andrey Karbushev,Андрей Карбушев,86.5,,,,,,175,-182.5,,175,,,,,,,175,90,B,Raw,No,Pro Open,36,1984-05-26
1,M,Daniil Kharitonov,Даниил Харитонов,96.6,,,,,,130,140,-150,140,,,,,,,140,100,B,Raw,No,Pro Juniors 20-23,21,1999-08-05
2,M,Aleksandr Belousov,Александр Белоусов,98.7,,,,,,140,-150,-150,140,,,,,,,140,100,B,Raw,No,Pro Juniors 20-23,21,1999-04-26
1,M,Aleksey Igumnov,Алексей Игумнов,98.1,,,,,,170,-175,-175,170,,,,,,,170,100,B,Raw,No,Pro Open,33,1987-06-22
1,M,Sergey Razudalov,Сергей Разудалов,109.7,,,,,,240,250,-260,250,,,,,,,250,110,B,Raw,No,Pro Open,30,1990-06-11
2,M,Aleksandr Sinelnik,Александр Синельник,109.3,,,,,,195,207.5,-212.5,207.5,,,,,,,207.5,110,B,Raw,No,Pro Open,32,1988-10-14
1,M,Roman Buyanov,Роман Буянов,118.7,,,,,,175,182.5,-187.5,182.5,,,,,,,182.5,125,B,Raw,No,Pro Open,29,1991-10-30
1,M,Aleksandr Bezborodov,Александр Безбородов,73.8,,,,,,,,,,,170,182.5,-185,182.5,,182.5,75,D,Raw,Yes,Amateur Open,29,1991-12-26
1,M,Denis Lyukshin,Денис Люкшин,99.8,,,,,,,,,,,230,-240,-240,230,,230,100,D,Raw,Yes,Amateur Sub-Juniors 17-19,17,2003-11-11
1,M,Aleksey Konyukhov,Алексей Конюхов,88.2,,,,,,,,,,,230,-240,250,250,,250,90,D,Raw,No,Pro Juniors 20-23,23,1997-04-23
2,M,Ilya Trunin,Илья Трунин,84.8,,,,,,,,,,,220,-240,-240,220,,220,90,D,Raw,No,Pro Juniors 20-23,21,1999-07-30
1,M,Maksim Chugunov,Максим Чугунов,94.1,,,,,,,,,,,-220,230,-250,230,,230,100,D,Raw,No,Pro Sub-Juniors 17-19,18,2002-09-06
1,M,Aleksandr Belousov,Александр Белоусов,98.7,,,,,,,,,,,202.5,210,220,220,,220,100,D,Raw,No,Pro Juniors 20-23,21,1999-04-26
