Division,WeightClassKg,Place,Name,Team,BodyweightKg,Best3SquatKg,Best3BenchKg,Best3DeadliftKg,TotalKg,Equipment,Event,Sex,BirthDate
Boys,55.79,1,Benjamin Zaleta,Scurry-Rosser,55.07,138.35,61.23,136.08,335.66,Single-ply,SBD,M,
Boys,55.79,2,Trace Woodruff,Crandall,53.71,113.4,65.77,145.15,324.32,Single-ply,SBD,M,
Boys,67.13,1,Jai Gelina,Scurry-Rosser,63.78,142.88,70.31,145.15,358.34,Single-ply,SBD,M,
Boys,74.84,1,Connor Busch,Scurry-Rosser,73.75,149.69,86.18,167.83,403.7,Single-ply,SBD,M,
Boys,74.84,2,Kase Mumphrey,Crandall,69.58,142.88,95.25,156.49,394.63,Single-ply,SBD,M,
Boys,74.84,3,Vilmer Zamarron,Crandall,74.48,124.74,74.84,142.88,342.46,Single-ply,SBD,M,
Boys,74.84,3,Josh Onourah,Crandall,72.57,95.25,77.11,129.27,301.64,Single-ply,SBD,M,
Boys,74.84,4,Aiden Richmond,Scurry-Rosser,67.68,111.13,70.31,147.42,328.85,Single-ply,SBD,M,
Boys,74.84,5,Jamison Starrett,Crandall,68.95,88.45,63.5,129.27,281.23,Single-ply,SBD,M,
Boys,82.1,1,Jackson Evans,Scurry-Rosser,81.83,147.42,92.99,154.22,394.63,Single-ply,SBD,M,
Boys,82.1,2,Peyton Lederman,Scurry-Rosser,80.47,122.47,74.84,147.42,344.73,Single-ply,SBD,M,
Boys,89.81,1,Reggie Williams,Crandall,86.45,183.7,127.01,183.7,494.42,Single-ply,SBD,M,
Boys,89.81,2,Emilio Gutierrez,Scurry-Rosser,87.91,183.7,102.06,190.51,476.27,Single-ply,SBD,M,
Boys,89.81,3,Coleman LaCour,Scurry-Rosser,86.64,147.42,83.91,167.83,399.16,Single-ply,SBD,M,
Boys,89.81,4,Connor Moore,Scurry-Rosser,89.81,124.74,79.38,136.08,340.19,Single-ply,SBD,M,
Boys,99.79,1,Beaumont Crews,Scurry-Rosser,96.8,138.35,92.99,129.27,360.61,Single-ply,SBD,M,
Boys,109.77,1,David Omosigho,Crandall,104.42,215.46,142.88,260.82,619.15,Single-ply,SBD,M,
Boys,124.74,1,Ryan Faulk,Crandall,124.1,142.88,90.72,163.29,396.89,Single-ply,SBD,M,
Boys,124.74,2,Tyler West,Scurry-Rosser,121.93,149.69,83.91,161.03,394.63,Single-ply,SBD,M,
Boys,124.74,3,Dylan Gray,Crandall,116.3,102.06,61.23,158.76,322.05,Single-ply,SBD,M,
Boys,139.71,1,Dustin Griggs,Scurry-Rosser,128.82,127.01,63.5,165.56,356.07,Single-ply,SBD,M,
