Place,WeightClassKg,Name,State,BodyweightKg,Division,Sex,Best3SquatKg,Best3BenchKg,Best3DeadliftKg,TotalKg,Event,Equipment
1,67.5,Ethan Schneider,OH,66.13,bpjr,M,,112.5,,112.5,B,Raw
1,100,Jerry Forren,WV,96.52,bpm1,M,,177.5,,177.5,B,Raw
1,110,Keenan Robbison,OH,108.68,bpm1,M,,200,,200,B,Raw
1,82.5,Len Bokuniewicz,MI,82.28,bpm2,M,,120,,120,B,Raw
1,90,Dave Vargo,OH,88.54,bpm2,M,,142.5,,142.5,B,Raw
1,100,John Fickel,KS,99.52,bpm2,M,,145,,145,B,Raw
1,110,Mike Brown #17,OH,105.87,bpm2,M,,165,,165,B,Raw
1,100,Khamaali Rowan,GA,98.7,bpm3,M,,137.5,,137.5,B,Raw
1,100,Jerry Forren,WV,96.52,bpmp,M,,177.5,,177.5,B,Raw
1,140+,Jim Ray,WI,152.95,bpmp,M,,197.5,,197.5,B,Raw
2,140+,Jeff Phillips #2,IL,141.97,bpmp,M,,182.5,,182.5,B,Raw
1,110,Keenan Robbison,OH,108.68,bpnat,M,,200,,200,B,Raw
1,140+,Jim Ray,WI,152.95,bpnat,M,,197.5,,197.5,B,Raw
1,90,Mark Johnson #20,OH,89.81,bpnov,M,,150,,150,B,Raw
1,100,James Spear,OH,97.89,bpnov,M,,147.5,,147.5,B,Raw
1,75,Frank Newbill,OH,72.12,bppure,M,,167.5,,167.5,B,Raw
1,100,JT Hall,KY,99.61,bppure,M,,192.5,,192.5,B,Raw
1,110,Keenan Robbison,OH,108.68,bppure,M,,200,,200,B,Raw
1,82.5,Jeff Molkentin,OH,81.28,bpsmp,M,,150,,150,B,Raw
1,110,Keenan Robbison,OH,108.68,bpsmp,M,,200,,200,B,Raw
1,100,Shawn Avery,OH,98.43,dlint,M,,,280,280,D,Raw
1,100,John Fickel,KS,99.52,dlm2,M,,,185,185,D,Raw
1,100,Shawn Avery,OH,98.43,dlnat,M,,,280,280,D,Raw
1,100,Shawn Avery,OH,98.43,dlpure,M,,,280,280,D,Raw
1,82.5,Matthew Lenzi,PA,80.1,dlteen,M,,,230,230,D,Raw
1,44,Lyndi McGonagle,OH,42.37,wdlyouth,F,,,57.5,57.5,D,Raw
1,100,Kevin Spurrier,OH,98.97,int,M,,142.5,180,322.5,BD,Raw
1,82.5,Brett Boyer,AL,81.56,m1,M,,157.5,245,402.5,BD,Raw
1,100,Joseph Raley,KY,93.26,m1,M,,165,182.5,347.5,BD,Raw
2,100,Joe McDonald,IN,92.17,m1,M,,147.5,192.5,340,BD,Raw
1,90,Blake O'Dell,IL,89.81,m2,M,,125,190,315,BD,Raw
1,100,John Fickel,KS,99.52,m2,M,,145,185,330,BD,Raw
1,125,Charles Bloomquist,PA,121.79,m2,M,,175,275,450,BD,Raw
1,140+,Bill Lobins,PA,147.87,m2,M,,187.5,213.5,401,BD,Raw
1,82.5,Pete Miller,VA,75.98,m3,M,,80,153.5,233.5,BD,Raw
1,90,J. R. Christy,IN,89.54,mp,M,,137.5,182.5,320,BD,Raw
2,90,Blake O'Dell,IL,89.81,mp,M,,125,190,315,BD,Raw
1,110,Randall Lacey,GA,108.45,mp,M,,170,250,420,BD,Raw
2,110,Rick Whitmire,IL,106.87,mp,M,,205,160,365,BD,Raw
1,140,Jerry Allen,KY,130.82,nov,M,,165,160,325,BD,Raw
1,125,Chester McCoy,KY,120.2,p+f,M,,165,250,415,BD,Raw
1,82.5,Bryan Kimble,OH,80.83,pure,M,,137.5,205,342.5,BD,Raw
1,82.5,Jay Montebon,OH,81.19,sm1,M,,150,195,345,BD,Raw
1,110,Jeff Lovelien,WI,105.87,sm2,M,,167.5,247.5,415,BD,Raw
2,110,David Blevins,KY,106.05,sm2,M,,160,235,395,BD,Raw
DQ,67.5,David Deibel,OH,66.95,smp,M,,-122.5,,,BD,Raw
1,82.5,Bryan Kimble,OH,80.83,smp,M,,137.5,205,342.5,BD,Raw
1,100,Craig Rasmussen,IN,98.97,smp,M,,125,232.5,357.5,BD,Raw
1,110,Jeff Lovelien,WI,105.87,smp,M,,167.5,247.5,415,BD,Raw
1,140,Matt Jones #3,WV,132.45,smp,M,,170,227.5,397.5,BD,Raw
1,110,Josh Steiner,NY,109.77,sqjr,M,200,,,200,S,Single-ply
1,75,Mike McGonagle,OH,74.12,sqm2,M,162.5,,,162.5,S,Single-ply
1,82.5,Pete Miller,VA,75.98,sqm3,M,120,,,120,S,Single-ply
1,82.5,Matthew Lenzi,PA,80.1,teen,M,,130,230,360,BD,Raw
1,56,Lisa Lowery,OH,52.16,wbpm1,F,,57.5,,57.5,B,Raw
1,67.5,Barbara Beazley,VA,63.23,wbpm2,F,,60,,60,B,Raw
1,67.5,Barbara Beasely,VA,63.23,wdlm2,F,,,137.5,137.5,D,Raw
1,56,Lisa Lowery,OH,52.16,wm1,F,,57.5,110,167.5,BD,Raw
1,82.5,Jeanne McWhirt,OH,81.19,wm1,F,,80,130,210,BD,Raw
1,56,Lisa Lowery,OH,52.16,wsqm1,F,102.5,,,102.5,S,Single-ply
1,82.5,Jeanne McWhirt,OH,81.19,wsqm1,F,92.5,,,92.5,S,Single-ply
1,67.5,Barbara Beasley,VA,63.23,wsqm2,F,82.5,,,82.5,S,Single-ply
1,40,Kaylea Kimble,OH,25.31,wyouth,F,,17.5,45,62.5,BD,Single-ply
1,110,Josh Steiner,NY,109.77,jr,M,,145,235,380,BD,Single-ply
1,75,Mike McGonagle,OH,74.12,m2,M,,95,157.5,252.5,BD,Single-ply
1,90,Blake O'Dell,IL,89.81,m2,M,,125,190,315,BD,Single-ply
1,90,Blake O'Dell,IL,89.81,mp,M,,125,190,315,BD,Single-ply
1,125,Nick Sabatino,OH,123.38,pure,M,,190,260,450,BD,Single-ply
1,110,David Blevins,KY,106.05,sm2,M,,160,235,395,BD,Single-ply
1,82.5,Matthew Lenzi,PA,80.1,teen,M,,130,230,360,BD,Single-ply
1,82.5,Jeanne McWhirt,OH,81.19,wm1,F,,80,130,210,BD,Single-ply
1,44,Lyndi McGonagle,OH,42.37,wyouth,F,,22.5,57.5,80,BD,Single-ply
1,82.5,Bryan Kimble,OH,80.83,pure,M,,137.5,205,342.5,BD,Single-ply